FinalProject/simulation/qsim/finalProject.msim.vcd
$comment
	File created using the following command:
		vcd file finalProject.msim.vcd -direction
$end
$date
	Sat Nov 28 18:48:28 2015
$end
$version
	ModelSim Version 10.3d
$end
$timescale
	1ps
$end

$scope module finalProject_vlg_vec_tst $end
$var reg 1 ! clk $end
$var reg 2 " rst [1:0] $end
$var reg 3 # sw [2:0] $end
$var wire 1 $ ledg [2] $end
$var wire 1 % ledg [1] $end
$var wire 1 & ledg [0] $end
$var wire 1 ' ledr [0] $end
$var wire 1 ( sampler $end

$scope module i1 $end
$var wire 1 ) gnd $end
$var wire 1 * vcc $end
$var wire 1 + unknown $end
$var tri1 1 , devclrn $end
$var tri1 1 - devpor $end
$var tri1 1 . devoe $end
$var wire 1 / ledr[0]~output_o $end
$var wire 1 0 ledg[0]~output_o $end
$var wire 1 1 ledg[1]~output_o $end
$var wire 1 2 ledg[2]~output_o $end
$var wire 1 3 clk~input_o $end
$var wire 1 4 clk~inputclkctrl_outclk $end
$var wire 1 5 rst[1]~input_o $end
$var wire 1 6 rst[0]~input_o $end
$var wire 1 7 sw[0]~input_o $end
$var wire 1 8 sw[2]~input_o $end
$var wire 1 9 sw[1]~input_o $end
$var wire 1 : counter~2_combout $end
$var wire 1 ; WideOr0~0_combout $end
$var wire 1 < counter[2]~0_combout $end
$var wire 1 = counter~4_combout $end
$var wire 1 > count[0]~26_combout $end
$var wire 1 ? count[0]~27 $end
$var wire 1 @ count[1]~28_combout $end
$var wire 1 A count[1]~29 $end
$var wire 1 B count[2]~30_combout $end
$var wire 1 C count[2]~31 $end
$var wire 1 D count[3]~32_combout $end
$var wire 1 E count[3]~33 $end
$var wire 1 F count[4]~34_combout $end
$var wire 1 G count[4]~35 $end
$var wire 1 H count[5]~36_combout $end
$var wire 1 I count[5]~37 $end
$var wire 1 J count[6]~38_combout $end
$var wire 1 K count[6]~39 $end
$var wire 1 L count[7]~40_combout $end
$var wire 1 M count[7]~41 $end
$var wire 1 N count[8]~42_combout $end
$var wire 1 O count[8]~43 $end
$var wire 1 P count[9]~44_combout $end
$var wire 1 Q count[9]~45 $end
$var wire 1 R count[10]~46_combout $end
$var wire 1 S count[10]~47 $end
$var wire 1 T count[11]~48_combout $end
$var wire 1 U count[11]~49 $end
$var wire 1 V count[12]~50_combout $end
$var wire 1 W count[12]~51 $end
$var wire 1 X count[13]~52_combout $end
$var wire 1 Y count[13]~feeder_combout $end
$var wire 1 Z count[13]~53 $end
$var wire 1 [ count[14]~54_combout $end
$var wire 1 \ count[14]~55 $end
$var wire 1 ] count[15]~56_combout $end
$var wire 1 ^ count[15]~57 $end
$var wire 1 _ count[16]~58_combout $end
$var wire 1 ` count[16]~59 $end
$var wire 1 a count[17]~60_combout $end
$var wire 1 b count[17]~61 $end
$var wire 1 c count[18]~62_combout $end
$var wire 1 d count[18]~63 $end
$var wire 1 e count[19]~64_combout $end
$var wire 1 f count[19]~65 $end
$var wire 1 g count[20]~66_combout $end
$var wire 1 h count[20]~67 $end
$var wire 1 i count[21]~68_combout $end
$var wire 1 j LessThan0~6_combout $end
$var wire 1 k count[21]~69 $end
$var wire 1 l count[22]~70_combout $end
$var wire 1 m count[22]~71 $end
$var wire 1 n count[23]~72_combout $end
$var wire 1 o count[23]~73 $end
$var wire 1 p count[24]~74_combout $end
$var wire 1 q count[24]~75 $end
$var wire 1 r count[25]~76_combout $end
$var wire 1 s LessThan0~0_combout $end
$var wire 1 t LessThan0~4_combout $end
$var wire 1 u LessThan0~1_combout $end
$var wire 1 v LessThan0~2_combout $end
$var wire 1 w LessThan0~3_combout $end
$var wire 1 x LessThan0~5_combout $end
$var wire 1 y LessThan0~7_combout $end
$var wire 1 z counter[2]~1_combout $end
$var wire 1 { counter~3_combout $end
$var wire 1 | counter[2]~feeder_combout $end
$var wire 1 } Add1~0_combout $end
$var wire 1 ~ Selector1~0_combout $end
$var wire 1 !! Selector1~1_combout $end
$var wire 1 "! y_Q.B~q $end
$var wire 1 #! Q[3]~3_combout $end
$var wire 1 $! Q~6_combout $end
$var wire 1 %! Q[2]~0_combout $end
$var wire 1 &! Q~7_combout $end
$var wire 1 '! Q~8_combout $end
$var wire 1 (! Q[3]~4_combout $end
$var wire 1 )! Q[3]~5_combout $end
$var wire 1 *! Y_D.C~0_combout $end
$var wire 1 +! y_Q.C~q $end
$var wire 1 ,! Y_D.D~0_combout $end
$var wire 1 -! y_Q.D~q $end
$var wire 1 .! Selector2~0_combout $end
$var wire 1 /! y_Q.E~feeder_combout $end
$var wire 1 0! y_Q.E~q $end
$var wire 1 1! Selector0~0_combout $end
$var wire 1 2! Selector0~1_combout $end
$var wire 1 3! Selector0~2_combout $end
$var wire 1 4! y_Q.A~q $end
$var wire 1 5! WideNor0~0_combout $end
$var wire 1 6! count [25] $end
$var wire 1 7! count [24] $end
$var wire 1 8! count [23] $end
$var wire 1 9! count [22] $end
$var wire 1 :! count [21] $end
$var wire 1 ;! count [20] $end
$var wire 1 <! count [19] $end
$var wire 1 =! count [18] $end
$var wire 1 >! count [17] $end
$var wire 1 ?! count [16] $end
$var wire 1 @! count [15] $end
$var wire 1 A! count [14] $end
$var wire 1 B! count [13] $end
$var wire 1 C! count [12] $end
$var wire 1 D! count [11] $end
$var wire 1 E! count [10] $end
$var wire 1 F! count [9] $end
$var wire 1 G! count [8] $end
$var wire 1 H! count [7] $end
$var wire 1 I! count [6] $end
$var wire 1 J! count [5] $end
$var wire 1 K! count [4] $end
$var wire 1 L! count [3] $end
$var wire 1 M! count [2] $end
$var wire 1 N! count [1] $end
$var wire 1 O! count [0] $end
$var wire 1 P! counter [2] $end
$var wire 1 Q! counter [1] $end
$var wire 1 R! counter [0] $end
$var wire 1 S! Q [3] $end
$var wire 1 T! Q [2] $end
$var wire 1 U! Q [1] $end
$var wire 1 V! Q [0] $end
$upscope $end
$upscope $end
$enddefinitions $end
#0
$dumpvars
0!
b10 "
b0 #
0&
0%
0$
0'
x(
0)
1*
x+
1,
1-
1.
0/
00
01
02
03
04
15
06
07
08
09
0:
0;
1<
0=
1>
0?
0@
1A
0B
0C
0D
1E
0F
0G
0H
1I
0J
0K
0L
1M
0N
0O
0P
1Q
0R
0S
0T
1U
0V
0W
0X
0Y
1Z
0[
0\
0]
1^
0_
0`
0a
1b
0c
0d
0e
1f
0g
0h
0i
1j
1k
0l
0m
0n
1o
0p
0q
0r
1s
1t
1u
1v
1w
1x
0y
0z
0{
1|
1}
0~
0!!
0"!
1#!
0$!
1%!
1&!
0'!
1(!
0)!
0*!
0+!
0,!
0-!
0.!
0/!
00!
01!
02!
03!
04!
15!
0O!
0N!
0M!
0L!
0K!
0J!
0I!
0H!
0G!
0F!
0E!
0D!
0C!
0B!
0A!
0@!
0?!
0>!
0=!
0<!
0;!
0:!
09!
08!
07!
06!
0R!
0Q!
0P!
0V!
0U!
0T!
0S!
$end
#20000
b100 #
b110 #
b111 #
17
19
18
0(
1;
0%!
#40000
1!
13
1(
14
1O!
1?
0>
1@
#80000
0!
03
0(
04
#120000
1!
13
1(
14
1N!
0O!
0A
0?
0@
1>
1A
1B
1@
0B
#160000
0!
03
0(
04
#200000
1!
13
1(
14
1O!
1?
0>
0A
0@
1B
#240000
0!
03
0(
04
#280000
1!
13
1(
14
1M!
0N!
0O!
1C
1A
0?
0B
1@
1>
0C
1D
1B
0@
0D
#320000
0!
03
0(
04
#360000
1!
13
1(
14
1O!
1?
0>
1@
#400000
0!
03
0(
04
#440000
1!
13
1(
14
1N!
0O!
0A
0?
0@
1>
1C
1A
0B
1@
0C
1D
1B
0D
#480000
0!
03
0(
04
#520000
1!
13
1(
14
1O!
1?
0>
0A
0@
1C
0B
1D
#560000
0!
03
0(
04
#600000
1!
13
1(
14
1L!
0M!
0N!
0O!
0E
0C
1A
0?
0D
1B
1@
1>
1E
1F
1D
0B
0@
0F
#640000
0!
03
0(
04
#680000
1!
13
1(
14
1O!
1?
0>
1@
#720000
0!
03
0(
04
#760000
1!
13
1(
14
1N!
0O!
0A
0?
0@
1>
1A
1B
1@
0B
#800000
0!
03
0(
04
#840000
1!
13
1(
14
1O!
1?
0>
0A
0@
1B
#880000
0!
03
0(
04
#920000
1!
13
1(
14
1M!
0N!
0O!
1C
1A
0?
0B
1@
1>
0E
0C
0D
1B
0@
1E
1F
1D
0F
#960000
0!
03
0(
04
#980000
b11 #
b1 #
b0 #
07
09
08
1(
0<
0;
1%!
1<
0&!
0|
1=
1&!
1|
0=
